{"count":7,"page":1,"page_size":3,"total_pages":3,"periods":[{"id":"2021-4","incidents":[{"id":"0d06cd64","title":"Errors creating project Snapshots","date":"2021-04-20T14:43:29.191Z","modified":"2021-04-20T21:32:36.549Z","scheduled":null,"severity":"partial-outage","affectedsystems":["workers"],"resolved":true,"content":"<!--- language code: en -->\n<p>Creating a project Snapshot fails when attempting to pin the Docker container version.</p>\n<div class=\"update-block\">\n          <div class=\"update-block-date\">2021-04-20T21:32:36.549Z</div>\n          <div class=\"update-block-content\">\n            <div class=\"update-block-title\">Resolved</div>\n            <div class=\"update-block-body\">\n<p>The error stemmed from rotating all API tokens after the recent <a href=\"https://about.codecov.io/security-update/\" target=\"_blank\" rel=\"noopener noreferrer\" class=\"external\">CodeCov security incident</a>.\nAfter the tokens were regenerated, some of secrets were not updated in the deployed pods.</p>\n<p>This caused the Worker process to attempt to use the outdated Docker credentials when\npinning the project Snapshot, and hence fail.</p>\n</div></div></div>\n"},{"id":"083a237b","title":"Cluster maintenance","date":"2021-04-18T23:32:01.564Z","modified":"2021-04-19T00:01:19.584Z","scheduled":null,"severity":"under-maintenance","affectedsystems":["router","manager","broker","overseer","monitor","workers","storage","cache"],"resolved":true,"content":"<p>We are reconfiguring our Kubernetes cluster management tool, <a href=\"https://toolkit.fluxcd.io/\" target=\"_blank\" rel=\"noopener noreferrer\" class=\"external\">Flux</a>. While not expected, there may be some instability during this process.</p>\n<!--- language code: en -->\n"}],"order":1,"count":2},{"id":"2020-9","incidents":[{"id":"d5399762","title":"Database maintenance","date":"2020-09-01T21:11:09.187Z","modified":"2021-04-21T03:01:14.888Z","scheduled":null,"severity":"under-maintenance","affectedsystems":["database"],"resolved":true,"content":"<p>We will be changing the configuration of our Postgres database instance at 2020-09-01T23:00UTC. There may be a few minutes of down time for https://hub.stenci.la during this process but running sessions should not be affected.</p>\n<!--- language code: en -->\n<div class=\"update-block\">\n          <div class=\"update-block-date\">2020-09-01T23:09:00.000Z</div>\n          <div class=\"update-block-content\">\n            <div class=\"update-block-title\">Resolved</div>\n            <div class=\"update-block-body\">\n<p>Resizing of the database instance is complete. Our monitoring indicates that https://hub.stenci.la was unavailable for approximately two minutes during this maintenance period.</p>\n</div></div></div>\n"}],"order":8,"count":1},{"id":"2020-8","incidents":[{"id":"76b4af9c","title":"Session Provisioning","date":"2020-08-17T13:44:32.060Z","modified":"2020-08-17T21:53:38.463Z","scheduled":null,"severity":"major-outage","affectedsystems":["us-ce-1"],"resolved":true,"content":"<p>While scaling the Worker pods, an issue with the Kubernetes configuration is preventing Session Jobs from being taken\noff the Queue, causing indefinite wait times when attempting to execute a document.</p>\n<!--- language code: en -->\n"},{"id":"58c07b2a","title":"Database upgrade","date":"2020-08-16T22:27:23.486Z","modified":"2020-08-16T23:22:56.289Z","scheduled":null,"severity":"under-maintenance","affectedsystems":["us-ce-1"],"resolved":true,"content":"<p>We will be upgrading our database instance at 2020-08-16T23:00UTC. There may be a few minutes of down time during this process.</p>\n<!--- language code: en -->\n<div class=\"update-block\">\n          <div class=\"update-block-date\">2020-08-16T23:22:56.289Z</div>\n          <div class=\"update-block-content\">\n            <div class=\"update-block-title\">Resolved</div>\n            <div class=\"update-block-body\">\n<p>The database instance has been upgraded and is operating as expected. Our monitoring indicates that https://hub.stenci.la was unavailable for approximately two minutes during this upgrade.</p>\n</div></div></div>\n"}],"order":9,"count":2}]}