{"count":8,"page":3,"page_size":3,"total_pages":3,"periods":[{"id":"2020-5","incidents":[{"id":"22c742da","title":"Misconfiguration","date":"2020-05-06T06:08:24.873Z","modified":"2020-05-06T06:45:04.965Z","scheduled":null,"severity":"under-maintenance","affectedsystems":["us-nw-1"],"resolved":true,"content":"<p>A misconfiguration in the <code>router</code> service is preventing a rollover to v2.21.0. As far as we are aware this is not affecting any services.</p>\n<!--- language code: en -->\n<div class=\"update-block\">\n          <div class=\"update-block-date\">2020-05-06T06:45:04.965Z</div>\n          <div class=\"update-block-content\">\n            <div class=\"update-block-title\">Resolved</div>\n            <div class=\"update-block-body\">\n<p>The <code>router</code> service has been <a href=\"https://github.com/stencila/gaia/blob/573fe2ec9a6004dede2180256e1e21d8a89233f7/clusters/us-nw-1/flux/router-deployment.yaml#L72\" target=\"_blank\" rel=\"noopener noreferrer\" class=\"external\">rolled back to v2.20.7</a>. There was a temporary outage while we resolved this issue. The issue stemmed from the <code>monitor</code> service erroring due to a known issue with Prometheus.\nWe are looking into fixing that, but also ways to avoid the <code>router</code> baulking if an upstream service is unavailable as happened in this situation: <code> nginx: [emerg] host not found in upstream &quot;monitor&quot; in /etc/nginx/conf.d/default.conf:24</code>.</p>\n</div></div></div>\n"}],"order":13,"count":1},{"id":"2020-4","incidents":[{"id":"218de212","title":"Continuous deployment setup","date":"2020-04-24T22:16:47.849Z","modified":"2020-05-04T06:07:17.715Z","scheduled":null,"severity":"under-maintenance","affectedsystems":["us-nw-1"],"resolved":true,"content":"<p>We are in the process of setting up our new system continuous deployment and status reports. Until this is complete, deployments will be done using our legacy system and this status page will be show &quot;Under Maintenance&quot;.</p>\n<!--- language code: en -->\n<div class=\"update-block\">\n          <div class=\"update-block-date\">2020-04-24T22:34:31.677Z</div>\n          <div class=\"update-block-content\">\n            <div class=\"update-block-title\">Fix</div>\n            <div class=\"update-block-body\">\n<p>We have <a href=\"https://github.com/stencila/gaia/commit/af0ffe61dca99abcbd9c572926dbafe781771b90\" target=\"_blank\" rel=\"noopener noreferrer\" class=\"external\">resolved an issue</a> with publishing of the status page caused by the <code>CNAME</code> file being overwritten.</p>\n</div></div></div>\n<div class=\"update-block\">\n          <div class=\"update-block-date\">2020-05-03T22:20:59.056Z</div>\n          <div class=\"update-block-content\">\n            <div class=\"update-block-title\">Infrastructure</div>\n            <div class=\"update-block-body\">\n<p>The <code>us-nw-1</code> cluster has been created in Google Cloud Platform's <code>us-west1-a</code> availability zone and we are beginning deployment to it.\nWhen complete https://hub.stenci.la will be switch to point to this new cluster and we expect any disruption to service to be minimal.</p>\n</div></div></div>\n<div class=\"update-block\">\n          <div class=\"update-block-date\">2020-05-03T22:20:59.056Z</div>\n          <div class=\"update-block-content\">\n            <div class=\"update-block-title\">Complete</div>\n            <div class=\"update-block-body\">\n<p>Initial deployment of Hub (v2.20.3) to the <code>us-nw-1</code> cluster has been completed.</p>\n</div></div></div>\n"}],"order":14,"count":1}]}